%!PS-Adobe-3.0 EPSF-3.0
%%Creator: (MATLAB, The Mathworks, Inc. Version 8.5.0.197613 \(R2015a\). Operating System: Linux)
%%Title: /home/cassio/Dropbox/RWA/article-epia17/Figures/blocking.eps
%%CreationDate: 2017-04-17T18:19:32
%%Pages: (atend)
%%BoundingBox: 0 0 1440 751
%%LanguageLevel: 2
%%EndComments
%%BeginProlog
%%BeginResource: procset (Apache XML Graphics Std ProcSet) 1.2 0
%%Version: 1.2 0
%%Copyright: (Copyright 2001-2003,2010 The Apache Software Foundation. License terms: http://www.apache.org/licenses/LICENSE-2.0)
/bd{bind def}bind def
/ld{load def}bd
/GR/grestore ld
/M/moveto ld
/LJ/setlinejoin ld
/C/curveto ld
/f/fill ld
/LW/setlinewidth ld
/GC/setgray ld
/t/show ld
/N/newpath ld
/CT/concat ld
/cp/closepath ld
/S/stroke ld
/L/lineto ld
/CC/setcmykcolor ld
/A/ashow ld
/GS/gsave ld
/RC/setrgbcolor ld
/RM/rmoveto ld
/ML/setmiterlimit ld
/re {4 2 roll M
1 index 0 rlineto
0 exch rlineto
neg 0 rlineto
cp } bd
/_ctm matrix def
/_tm matrix def
/BT { _ctm currentmatrix pop matrix _tm copy pop 0 0 moveto } bd
/ET { _ctm setmatrix } bd
/iTm { _ctm setmatrix _tm concat } bd
/Tm { _tm astore pop iTm 0 0 moveto } bd
/ux 0.0 def
/uy 0.0 def
/F {
  /Tp exch def
  /Tf exch def
  Tf findfont Tp scalefont setfont
  /cf Tf def  /cs Tp def
} bd
/ULS {currentpoint /uy exch def /ux exch def} bd
/ULE {
  /Tcx currentpoint pop def
  gsave
  newpath
  cf findfont cs scalefont dup
  /FontMatrix get 0 get /Ts exch def /FontInfo get dup
  /UnderlinePosition get Ts mul /To exch def
  /UnderlineThickness get Ts mul /Tt exch def
  ux uy To add moveto  Tcx uy To add lineto
  Tt setlinewidth stroke
  grestore
} bd
/OLE {
  /Tcx currentpoint pop def
  gsave
  newpath
  cf findfont cs scalefont dup
  /FontMatrix get 0 get /Ts exch def /FontInfo get dup
  /UnderlinePosition get Ts mul /To exch def
  /UnderlineThickness get Ts mul /Tt exch def
  ux uy To add cs add moveto Tcx uy To add cs add lineto
  Tt setlinewidth stroke
  grestore
} bd
/SOE {
  /Tcx currentpoint pop def
  gsave
  newpath
  cf findfont cs scalefont dup
  /FontMatrix get 0 get /Ts exch def /FontInfo get dup
  /UnderlinePosition get Ts mul /To exch def
  /UnderlineThickness get Ts mul /Tt exch def
  ux uy To add cs 10 mul 26 idiv add moveto Tcx uy To add cs 10 mul 26 idiv add lineto
  Tt setlinewidth stroke
  grestore
} bd
/QT {
/Y22 exch store
/X22 exch store
/Y21 exch store
/X21 exch store
currentpoint
/Y21 load 2 mul add 3 div exch
/X21 load 2 mul add 3 div exch
/X21 load 2 mul /X22 load add 3 div
/Y21 load 2 mul /Y22 load add 3 div
/X22 load /Y22 load curveto
} bd
/SSPD {
dup length /d exch dict def
{
/v exch def
/k exch def
currentpagedevice k known {
/cpdv currentpagedevice k get def
v cpdv ne {
/upd false def
/nullv v type /nulltype eq def
/nullcpdv cpdv type /nulltype eq def
nullv nullcpdv or
{
/upd true def
} {
/sametype v type cpdv type eq def
sametype {
v type /arraytype eq {
/vlen v length def
/cpdvlen cpdv length def
vlen cpdvlen eq {
0 1 vlen 1 sub {
/i exch def
/obj v i get def
/cpdobj cpdv i get def
obj cpdobj ne {
/upd true def
exit
} if
} for
} {
/upd true def
} ifelse
} {
v type /dicttype eq {
v {
/dv exch def
/dk exch def
/cpddv cpdv dk get def
dv cpddv ne {
/upd true def
exit
} if
} forall
} {
/upd true def
} ifelse
} ifelse
} if
} ifelse
upd true eq {
d k v put
} if
} if
} if
} forall
d length 0 gt {
d setpagedevice
} if
} bd
%%EndResource
%%BeginResource: procset (Apache XML Graphics EPS ProcSet) 1.0 0
%%Version: 1.0 0
%%Copyright: (Copyright 2002-2003 The Apache Software Foundation. License terms: http://www.apache.org/licenses/LICENSE-2.0)
/BeginEPSF { %def
/b4_Inc_state save def         % Save state for cleanup
/dict_count countdictstack def % Count objects on dict stack
/op_count count 1 sub def      % Count objects on operand stack
userdict begin                 % Push userdict on dict stack
/showpage { } def              % Redefine showpage, { } = null proc
0 setgray 0 setlinecap         % Prepare graphics state
1 setlinewidth 0 setlinejoin
10 setmiterlimit [ ] 0 setdash newpath
/languagelevel where           % If level not equal to 1 then
{pop languagelevel             % set strokeadjust and
1 ne                           % overprint to their defaults.
{false setstrokeadjust false setoverprint
} if
} if
} bd
/EndEPSF { %def
count op_count sub {pop} repeat            % Clean up stacks
countdictstack dict_count sub {end} repeat
b4_Inc_state restore
} bd
%%EndResource
%FOPBeginFontDict
%%IncludeResource: font Courier-Bold
%%IncludeResource: font Helvetica
%%IncludeResource: font Courier-BoldOblique
%%IncludeResource: font Courier-Oblique
%%IncludeResource: font Times-Roman
%%IncludeResource: font Helvetica-BoldOblique
%%IncludeResource: font Helvetica-Bold
%%IncludeResource: font Helvetica-Oblique
%%IncludeResource: font Times-BoldItalic
%%IncludeResource: font Courier
%%IncludeResource: font Times-Italic
%%IncludeResource: font Times-Bold
%%IncludeResource: font Symbol
%%IncludeResource: font ZapfDingbats
%FOPEndFontDict
%%BeginResource: encoding WinAnsiEncoding
/WinAnsiEncoding [
/.notdef /.notdef /.notdef /.notdef /.notdef
/.notdef /.notdef /.notdef /.notdef /.notdef
/.notdef /.notdef /.notdef /.notdef /.notdef
/.notdef /.notdef /.notdef /.notdef /.notdef
/.notdef /.notdef /.notdef /.notdef /.notdef
/.notdef /.notdef /.notdef /.notdef /.notdef
/.notdef /.notdef /space /exclam /quotedbl
/numbersign /dollar /percent /ampersand /quotesingle
/parenleft /parenright /asterisk /plus /comma
/hyphen /period /slash /zero /one
/two /three /four /five /six
/seven /eight /nine /colon /semicolon
/less /equal /greater /question /at
/A /B /C /D /E
/F /G /H /I /J
/K /L /M /N /O
/P /Q /R /S /T
/U /V /W /X /Y
/Z /bracketleft /backslash /bracketright /asciicircum
/underscore /quoteleft /a /b /c
/d /e /f /g /h
/i /j /k /l /m
/n /o /p /q /r
/s /t /u /v /w
/x /y /z /braceleft /bar
/braceright /asciitilde /bullet /Euro /bullet
/quotesinglbase /florin /quotedblbase /ellipsis /dagger
/daggerdbl /circumflex /perthousand /Scaron /guilsinglleft
/OE /bullet /Zcaron /bullet /bullet
/quoteleft /quoteright /quotedblleft /quotedblright /bullet
/endash /emdash /asciitilde /trademark /scaron
/guilsinglright /oe /bullet /zcaron /Ydieresis
/space /exclamdown /cent /sterling /currency
/yen /brokenbar /section /dieresis /copyright
/ordfeminine /guillemotleft /logicalnot /sfthyphen /registered
/macron /degree /plusminus /twosuperior /threesuperior
/acute /mu /paragraph /middot /cedilla
/onesuperior /ordmasculine /guillemotright /onequarter /onehalf
/threequarters /questiondown /Agrave /Aacute /Acircumflex
/Atilde /Adieresis /Aring /AE /Ccedilla
/Egrave /Eacute /Ecircumflex /Edieresis /Igrave
/Iacute /Icircumflex /Idieresis /Eth /Ntilde
/Ograve /Oacute /Ocircumflex /Otilde /Odieresis
/multiply /Oslash /Ugrave /Uacute /Ucircumflex
/Udieresis /Yacute /Thorn /germandbls /agrave
/aacute /acircumflex /atilde /adieresis /aring
/ae /ccedilla /egrave /eacute /ecircumflex
/edieresis /igrave /iacute /icircumflex /idieresis
/eth /ntilde /ograve /oacute /ocircumflex
/otilde /odieresis /divide /oslash /ugrave
/uacute /ucircumflex /udieresis /yacute /thorn
/ydieresis
] def
%%EndResource
%FOPBeginFontReencode
/Courier-Bold findfont
dup length dict begin
  {1 index /FID ne {def} {pop pop} ifelse} forall
  /Encoding WinAnsiEncoding def
  currentdict
end
/Courier-Bold exch definefont pop
/Helvetica findfont
dup length dict begin
  {1 index /FID ne {def} {pop pop} ifelse} forall
  /Encoding WinAnsiEncoding def
  currentdict
end
/Helvetica exch definefont pop
/Courier-BoldOblique findfont
dup length dict begin
  {1 index /FID ne {def} {pop pop} ifelse} forall
  /Encoding WinAnsiEncoding def
  currentdict
end
/Courier-BoldOblique exch definefont pop
/Courier-Oblique findfont
dup length dict begin
  {1 index /FID ne {def} {pop pop} ifelse} forall
  /Encoding WinAnsiEncoding def
  currentdict
end
/Courier-Oblique exch definefont pop
/Times-Roman findfont
dup length dict begin
  {1 index /FID ne {def} {pop pop} ifelse} forall
  /Encoding WinAnsiEncoding def
  currentdict
end
/Times-Roman exch definefont pop
/Helvetica-BoldOblique findfont
dup length dict begin
  {1 index /FID ne {def} {pop pop} ifelse} forall
  /Encoding WinAnsiEncoding def
  currentdict
end
/Helvetica-BoldOblique exch definefont pop
/Helvetica-Bold findfont
dup length dict begin
  {1 index /FID ne {def} {pop pop} ifelse} forall
  /Encoding WinAnsiEncoding def
  currentdict
end
/Helvetica-Bold exch definefont pop
/Helvetica-Oblique findfont
dup length dict begin
  {1 index /FID ne {def} {pop pop} ifelse} forall
  /Encoding WinAnsiEncoding def
  currentdict
end
/Helvetica-Oblique exch definefont pop
/Times-BoldItalic findfont
dup length dict begin
  {1 index /FID ne {def} {pop pop} ifelse} forall
  /Encoding WinAnsiEncoding def
  currentdict
end
/Times-BoldItalic exch definefont pop
/Courier findfont
dup length dict begin
  {1 index /FID ne {def} {pop pop} ifelse} forall
  /Encoding WinAnsiEncoding def
  currentdict
end
/Courier exch definefont pop
/Times-Italic findfont
dup length dict begin
  {1 index /FID ne {def} {pop pop} ifelse} forall
  /Encoding WinAnsiEncoding def
  currentdict
end
/Times-Italic exch definefont pop
/Times-Bold findfont
dup length dict begin
  {1 index /FID ne {def} {pop pop} ifelse} forall
  /Encoding WinAnsiEncoding def
  currentdict
end
/Times-Bold exch definefont pop
%FOPEndFontReencode
%%EndProlog
%%Page: 1 1
%%PageBoundingBox: 0 0 1440 751
%%BeginPageSetup
[1 0 0 -1 0 751] CT
%%EndPageSetup
GS
[0.75 0 0 0.75 0 0.25] CT
N
0 0 M
1920 0 L
1920 1001 L
0 1001 L
0 0 L
cp
clip
1 GC
N
0 0 1920 1001 re
f
GR
GS
[0.75 0 0 0.75 0 0.25] CT
1 GC
N
0 0 1920 1001 re
f
GR
GS
[0.75 0 0 0.75 0 0.25] CT
1 GC
N
250 889 M
1738 889 L
1738 75 L
250 75 L
cp
f
GR
GS
[0.75 0 0 0.75 0 0.25] CT
0.873 GC
2 setlinecap
10.0 ML
N
265.34 889 M
265.34 75 L
S
GR
GS
[0.75 0 0 0.75 0 0.25] CT
0.873 GC
2 setlinecap
10.0 ML
N
342.041 889 M
342.041 75 L
S
GR
GS
[0.75 0 0 0.75 0 0.25] CT
0.873 GC
2 setlinecap
10.0 ML
N
418.742 889 M
418.742 75 L
S
GR
GS
[0.75 0 0 0.75 0 0.25] CT
0.873 GC
2 setlinecap
10.0 ML
N
495.443 889 M
495.443 75 L
S
GR
GS
[0.75 0 0 0.75 0 0.25] CT
0.873 GC
2 setlinecap
10.0 ML
N
572.144 889 M
572.144 75 L
S
GR
GS
[0.75 0 0 0.75 0 0.25] CT
0.873 GC
2 setlinecap
10.0 ML
N
648.845 889 M
648.845 75 L
S
GR
GS
[0.75 0 0 0.75 0 0.25] CT
0.873 GC
2 setlinecap
10.0 ML
N
725.546 889 M
725.546 75 L
S
GR
GS
[0.75 0 0 0.75 0 0.25] CT
0.873 GC
2 setlinecap
10.0 ML
N
802.247 889 M
802.247 75 L
S
GR
GS
[0.75 0 0 0.75 0 0.25] CT
0.873 GC
2 setlinecap
10.0 ML
N
878.948 889 M
878.948 75 L
S
GR
GS
[0.75 0 0 0.75 0 0.25] CT
0.873 GC
2 setlinecap
10.0 ML
N
955.649 889 M
955.649 75 L
S
GR
GS
[0.75 0 0 0.75 0 0.25] CT
0.873 GC
2 setlinecap
10.0 ML
N
1032.35 889 M
1032.35 75 L
S
GR
GS
[0.75 0 0 0.75 0 0.25] CT
0.873 GC
2 setlinecap
10.0 ML
N
1109.052 889 M
1109.052 75 L
S
GR
GS
[0.75 0 0 0.75 0 0.25] CT
0.873 GC
2 setlinecap
10.0 ML
N
1185.753 889 M
1185.753 75 L
S
GR
GS
[0.75 0 0 0.75 0 0.25] CT
0.873 GC
2 setlinecap
10.0 ML
N
1262.454 889 M
1262.454 75 L
S
GR
GS
[0.75 0 0 0.75 0 0.25] CT
0.873 GC
2 setlinecap
10.0 ML
N
1339.155 889 M
1339.155 75 L
S
GR
GS
[0.75 0 0 0.75 0 0.25] CT
0.873 GC
2 setlinecap
10.0 ML
N
1415.856 889 M
1415.856 75 L
S
GR
GS
[0.75 0 0 0.75 0 0.25] CT
0.873 GC
2 setlinecap
10.0 ML
N
1492.557 889 M
1492.557 75 L
S
GR
GS
[0.75 0 0 0.75 0 0.25] CT
0.873 GC
2 setlinecap
10.0 ML
N
1569.258 889 M
1569.258 75 L
S
GR
GS
[0.75 0 0 0.75 0 0.25] CT
0.873 GC
2 setlinecap
10.0 ML
N
1645.959 889 M
1645.959 75 L
S
GR
GS
[0.75 0 0 0.75 0 0.25] CT
0.873 GC
2 setlinecap
10.0 ML
N
1722.66 889 M
1722.66 75 L
S
GR
GS
[0.75 0 0 0.75 0 0.25] CT
0.873 GC
2 setlinecap
10.0 ML
N
1738 873.039 M
250 873.039 L
S
GR
GS
[0.75 0 0 0.75 0 0.25] CT
0.873 GC
2 setlinecap
10.0 ML
N
1738 793.235 M
250 793.235 L
S
GR
GS
[0.75 0 0 0.75 0 0.25] CT
0.873 GC
2 setlinecap
10.0 ML
N
1738 713.431 M
250 713.431 L
S
GR
GS
[0.75 0 0 0.75 0 0.25] CT
0.873 GC
2 setlinecap
10.0 ML
N
1738 633.627 M
250 633.627 L
S
GR
GS
[0.75 0 0 0.75 0 0.25] CT
0.873 GC
2 setlinecap
10.0 ML
N
1738 553.824 M
250 553.824 L
S
GR
GS
[0.75 0 0 0.75 0 0.25] CT
0.873 GC
2 setlinecap
10.0 ML
N
1738 474.02 M
250 474.02 L
S
GR
GS
[0.75 0 0 0.75 0 0.25] CT
0.873 GC
2 setlinecap
10.0 ML
N
1738 394.216 M
250 394.216 L
S
GR
GS
[0.75 0 0 0.75 0 0.25] CT
0.873 GC
2 setlinecap
10.0 ML
N
1738 314.412 M
250 314.412 L
S
GR
GS
[0.75 0 0 0.75 0 0.25] CT
0.873 GC
2 setlinecap
10.0 ML
N
1738 234.608 M
250 234.608 L
S
GR
GS
[0.75 0 0 0.75 0 0.25] CT
0.873 GC
2 setlinecap
10.0 ML
N
1738 154.804 M
250 154.804 L
S
GR
GS
[0.75 0 0 0.75 0 0.25] CT
0.873 GC
2 setlinecap
10.0 ML
N
1738 75 M
250 75 L
S
GR
GS
[0.75 0 0 0.75 745.50055 703.75] CT
0.149 GC
/Helvetica 53 F
GS
[1 0 0 1 0 0] CT
-192 50 moveto 
1 -1 scale
(Load \(Erlangs\)) t 
GR
GR
GS
[0.75 0 0 0.75 0 0.25] CT
0.149 GC
2 setlinecap
10.0 ML
N
250 889 M
1738 889 L
S
GR
GS
[0.75 0 0 0.75 0 0.25] CT
0.149 GC
2 setlinecap
10.0 ML
N
250 75 M
1738 75 L
S
GR
GS
[0.75 0 0 0.75 0 0.25] CT
0.149 GC
2 setlinecap
10.0 ML
N
265.34 889 M
265.34 874.12 L
S
GR
GS
[0.75 0 0 0.75 0 0.25] CT
0.149 GC
2 setlinecap
10.0 ML
N
342.041 889 M
342.041 874.12 L
S
GR
GS
[0.75 0 0 0.75 0 0.25] CT
0.149 GC
2 setlinecap
10.0 ML
N
418.742 889 M
418.742 874.12 L
S
GR
GS
[0.75 0 0 0.75 0 0.25] CT
0.149 GC
2 setlinecap
10.0 ML
N
495.443 889 M
495.443 874.12 L
S
GR
GS
[0.75 0 0 0.75 0 0.25] CT
0.149 GC
2 setlinecap
10.0 ML
N
572.144 889 M
572.144 874.12 L
S
GR
GS
[0.75 0 0 0.75 0 0.25] CT
0.149 GC
2 setlinecap
10.0 ML
N
648.845 889 M
648.845 874.12 L
S
GR
GS
[0.75 0 0 0.75 0 0.25] CT
0.149 GC
2 setlinecap
10.0 ML
N
725.546 889 M
725.546 874.12 L
S
GR
GS
[0.75 0 0 0.75 0 0.25] CT
0.149 GC
2 setlinecap
10.0 ML
N
802.247 889 M
802.247 874.12 L
S
GR
GS
[0.75 0 0 0.75 0 0.25] CT
0.149 GC
2 setlinecap
10.0 ML
N
878.948 889 M
878.948 874.12 L
S
GR
GS
[0.75 0 0 0.75 0 0.25] CT
0.149 GC
2 setlinecap
10.0 ML
N
955.649 889 M
955.649 874.12 L
S
GR
GS
[0.75 0 0 0.75 0 0.25] CT
0.149 GC
2 setlinecap
10.0 ML
N
1032.35 889 M
1032.35 874.12 L
S
GR
GS
[0.75 0 0 0.75 0 0.25] CT
0.149 GC
2 setlinecap
10.0 ML
N
1109.052 889 M
1109.052 874.12 L
S
GR
GS
[0.75 0 0 0.75 0 0.25] CT
0.149 GC
2 setlinecap
10.0 ML
N
1185.753 889 M
1185.753 874.12 L
S
GR
GS
[0.75 0 0 0.75 0 0.25] CT
0.149 GC
2 setlinecap
10.0 ML
N
1262.454 889 M
1262.454 874.12 L
S
GR
GS
[0.75 0 0 0.75 0 0.25] CT
0.149 GC
2 setlinecap
10.0 ML
N
1339.155 889 M
1339.155 874.12 L
S
GR
GS
[0.75 0 0 0.75 0 0.25] CT
0.149 GC
2 setlinecap
10.0 ML
N
1415.856 889 M
1415.856 874.12 L
S
GR
GS
[0.75 0 0 0.75 0 0.25] CT
0.149 GC
2 setlinecap
10.0 ML
N
1492.557 889 M
1492.557 874.12 L
S
GR
GS
[0.75 0 0 0.75 0 0.25] CT
0.149 GC
2 setlinecap
10.0 ML
N
1569.258 889 M
1569.258 874.12 L
S
GR
GS
[0.75 0 0 0.75 0 0.25] CT
0.149 GC
2 setlinecap
10.0 ML
N
1645.959 889 M
1645.959 874.12 L
S
GR
GS
[0.75 0 0 0.75 0 0.25] CT
0.149 GC
2 setlinecap
10.0 ML
N
1722.66 889 M
1722.66 874.12 L
S
GR
GS
[0.75 0 0 0.75 0 0.25] CT
0.149 GC
2 setlinecap
10.0 ML
N
265.34 75 M
265.34 89.88 L
S
GR
GS
[0.75 0 0 0.75 0 0.25] CT
0.149 GC
2 setlinecap
10.0 ML
N
342.041 75 M
342.041 89.88 L
S
GR
GS
[0.75 0 0 0.75 0 0.25] CT
0.149 GC
2 setlinecap
10.0 ML
N
418.742 75 M
418.742 89.88 L
S
GR
GS
[0.75 0 0 0.75 0 0.25] CT
0.149 GC
2 setlinecap
10.0 ML
N
495.443 75 M
495.443 89.88 L
S
GR
GS
[0.75 0 0 0.75 0 0.25] CT
0.149 GC
2 setlinecap
10.0 ML
N
572.144 75 M
572.144 89.88 L
S
GR
GS
[0.75 0 0 0.75 0 0.25] CT
0.149 GC
2 setlinecap
10.0 ML
N
648.845 75 M
648.845 89.88 L
S
GR
GS
[0.75 0 0 0.75 0 0.25] CT
0.149 GC
2 setlinecap
10.0 ML
N
725.546 75 M
725.546 89.88 L
S
GR
GS
[0.75 0 0 0.75 0 0.25] CT
0.149 GC
2 setlinecap
10.0 ML
N
802.247 75 M
802.247 89.88 L
S
GR
GS
[0.75 0 0 0.75 0 0.25] CT
0.149 GC
2 setlinecap
10.0 ML
N
878.948 75 M
878.948 89.88 L
S
GR
GS
[0.75 0 0 0.75 0 0.25] CT
0.149 GC
2 setlinecap
10.0 ML
N
955.649 75 M
955.649 89.88 L
S
GR
GS
[0.75 0 0 0.75 0 0.25] CT
0.149 GC
2 setlinecap
10.0 ML
N
1032.35 75 M
1032.35 89.88 L
S
GR
GS
[0.75 0 0 0.75 0 0.25] CT
0.149 GC
2 setlinecap
10.0 ML
N
1109.052 75 M
1109.052 89.88 L
S
GR
GS
[0.75 0 0 0.75 0 0.25] CT
0.149 GC
2 setlinecap
10.0 ML
N
1185.753 75 M
1185.753 89.88 L
S
GR
GS
[0.75 0 0 0.75 0 0.25] CT
0.149 GC
2 setlinecap
10.0 ML
N
1262.454 75 M
1262.454 89.88 L
S
GR
GS
[0.75 0 0 0.75 0 0.25] CT
0.149 GC
2 setlinecap
10.0 ML
N
1339.155 75 M
1339.155 89.88 L
S
GR
GS
[0.75 0 0 0.75 0 0.25] CT
0.149 GC
2 setlinecap
10.0 ML
N
1415.856 75 M
1415.856 89.88 L
S
GR
GS
[0.75 0 0 0.75 0 0.25] CT
0.149 GC
2 setlinecap
10.0 ML
N
1492.557 75 M
1492.557 89.88 L
S
GR
GS
[0.75 0 0 0.75 0 0.25] CT
0.149 GC
2 setlinecap
10.0 ML
N
1569.258 75 M
1569.258 89.88 L
S
GR
GS
[0.75 0 0 0.75 0 0.25] CT
0.149 GC
2 setlinecap
10.0 ML
N
1645.959 75 M
1645.959 89.88 L
S
GR
GS
[0.75 0 0 0.75 0 0.25] CT
0.149 GC
2 setlinecap
10.0 ML
N
1722.66 75 M
1722.66 89.88 L
S
GR
GS
[0.75 0 0 0.75 199.00516 673.79999] CT
0.149 GC
/Helvetica 32 F
GS
[1 0 0 1 0 0] CT
-10.5 30 moveto 
1 -1 scale
(1) t 
GR
GR
GS
[0.75 0 0 0.75 256.53092 673.79999] CT
0.149 GC
/Helvetica 32 F
GS
[1 0 0 1 0 0] CT
-10.5 30 moveto 
1 -1 scale
(2) t 
GR
GR
GS
[0.75 0 0 0.75 314.05671 673.79999] CT
0.149 GC
/Helvetica 32 F
GS
[1 0 0 1 0 0] CT
-10.5 30 moveto 
1 -1 scale
(3) t 
GR
GR
GS
[0.75 0 0 0.75 371.58247 673.79999] CT
0.149 GC
/Helvetica 32 F
GS
[1 0 0 1 0 0] CT
-10.5 30 moveto 
1 -1 scale
(4) t 
GR
GR
GS
[0.75 0 0 0.75 429.10826 673.79999] CT
0.149 GC
/Helvetica 32 F
GS
[1 0 0 1 0 0] CT
-10.5 30 moveto 
1 -1 scale
(5) t 
GR
GR
GS
[0.75 0 0 0.75 486.634 673.79999] CT
0.149 GC
/Helvetica 32 F
GS
[1 0 0 1 0 0] CT
-10.5 30 moveto 
1 -1 scale
(6) t 
GR
GR
GS
[0.75 0 0 0.75 544.15979 673.79999] CT
0.149 GC
/Helvetica 32 F
GS
[1 0 0 1 0 0] CT
-10.5 30 moveto 
1 -1 scale
(7) t 
GR
GR
GS
[0.75 0 0 0.75 601.68558 673.79999] CT
0.149 GC
/Helvetica 32 F
GS
[1 0 0 1 0 0] CT
-10.5 30 moveto 
1 -1 scale
(8) t 
GR
GR
GS
[0.75 0 0 0.75 659.21132 673.79999] CT
0.149 GC
/Helvetica 32 F
GS
[1 0 0 1 0 0] CT
-10.5 30 moveto 
1 -1 scale
(9) t 
GR
GR
GS
[0.75 0 0 0.75 716.73711 673.79999] CT
0.149 GC
/Helvetica 32 F
GS
[1 0 0 1 0 0] CT
-20.5 30 moveto 
1 -1 scale
(10) t 
GR
GR
GS
[0.75 0 0 0.75 774.26285 673.79999] CT
0.149 GC
/Helvetica 32 F
GS
[1 0 0 1 0 0] CT
-20.5 30 moveto 
1 -1 scale
(11) t 
GR
GR
GS
[0.75 0 0 0.75 831.78864 673.79999] CT
0.149 GC
/Helvetica 32 F
GS
[1 0 0 1 0 0] CT
-20.5 30 moveto 
1 -1 scale
(12) t 
GR
GR
GS
[0.75 0 0 0.75 889.31442 673.79999] CT
0.149 GC
/Helvetica 32 F
GS
[1 0 0 1 0 0] CT
-20.5 30 moveto 
1 -1 scale
(13) t 
GR
GR
GS
[0.75 0 0 0.75 946.84021 673.79999] CT
0.149 GC
/Helvetica 32 F
GS
[1 0 0 1 0 0] CT
-20.5 30 moveto 
1 -1 scale
(14) t 
GR
GR
GS
[0.75 0 0 0.75 1004.366 673.79999] CT
0.149 GC
/Helvetica 32 F
GS
[1 0 0 1 0 0] CT
-20.5 30 moveto 
1 -1 scale
(15) t 
GR
GR
GS
[0.75 0 0 0.75 1061.89178 673.79999] CT
0.149 GC
/Helvetica 32 F
GS
[1 0 0 1 0 0] CT
-20.5 30 moveto 
1 -1 scale
(16) t 
GR
GR
GS
[0.75 0 0 0.75 1119.41748 673.79999] CT
0.149 GC
/Helvetica 32 F
GS
[1 0 0 1 0 0] CT
-20.5 30 moveto 
1 -1 scale
(17) t 
GR
GR
GS
[0.75 0 0 0.75 1176.94327 673.79999] CT
0.149 GC
/Helvetica 32 F
GS
[1 0 0 1 0 0] CT
-20.5 30 moveto 
1 -1 scale
(18) t 
GR
GR
GS
[0.75 0 0 0.75 1234.46906 673.79999] CT
0.149 GC
/Helvetica 32 F
GS
[1 0 0 1 0 0] CT
-20.5 30 moveto 
1 -1 scale
(19) t 
GR
GR
GS
[0.75 0 0 0.75 1291.99484 673.79999] CT
0.149 GC
/Helvetica 32 F
GS
[1 0 0 1 0 0] CT
-20.5 30 moveto 
1 -1 scale
(20) t 
GR
GR
GS
[0 -0.75 0.75 0 131.2 361.7497] CT
0.149 GC
/Helvetica 53 F
GS
[1 0 0 1 0 0] CT
-316.5 -13 moveto 
1 -1 scale
(Blocking Probability \(%\)) t 
GR
GR
GS
[0.75 0 0 0.75 0 0.25] CT
0.149 GC
2 setlinecap
10.0 ML
N
250 889 M
250 75 L
S
GR
GS
[0.75 0 0 0.75 0 0.25] CT
0.149 GC
2 setlinecap
10.0 ML
N
1738 889 M
1738 75 L
S
GR
GS
[0.75 0 0 0.75 0 0.25] CT
0.149 GC
2 setlinecap
10.0 ML
N
250 873.039 M
264.88 873.039 L
S
GR
GS
[0.75 0 0 0.75 0 0.25] CT
0.149 GC
2 setlinecap
10.0 ML
N
250 793.235 M
264.88 793.235 L
S
GR
GS
[0.75 0 0 0.75 0 0.25] CT
0.149 GC
2 setlinecap
10.0 ML
N
250 713.431 M
264.88 713.431 L
S
GR
GS
[0.75 0 0 0.75 0 0.25] CT
0.149 GC
2 setlinecap
10.0 ML
N
250 633.627 M
264.88 633.627 L
S
GR
GS
[0.75 0 0 0.75 0 0.25] CT
0.149 GC
2 setlinecap
10.0 ML
N
250 553.824 M
264.88 553.824 L
S
GR
GS
[0.75 0 0 0.75 0 0.25] CT
0.149 GC
2 setlinecap
10.0 ML
N
250 474.02 M
264.88 474.02 L
S
GR
GS
[0.75 0 0 0.75 0 0.25] CT
0.149 GC
2 setlinecap
10.0 ML
N
250 394.216 M
264.88 394.216 L
S
GR
GS
[0.75 0 0 0.75 0 0.25] CT
0.149 GC
2 setlinecap
10.0 ML
N
250 314.412 M
264.88 314.412 L
S
GR
GS
[0.75 0 0 0.75 0 0.25] CT
0.149 GC
2 setlinecap
10.0 ML
N
250 234.608 M
264.88 234.608 L
S
GR
GS
[0.75 0 0 0.75 0 0.25] CT
0.149 GC
2 setlinecap
10.0 ML
N
250 154.804 M
264.88 154.804 L
S
GR
GS
[0.75 0 0 0.75 0 0.25] CT
0.149 GC
2 setlinecap
10.0 ML
N
250 75 M
264.88 75 L
S
GR
GS
[0.75 0 0 0.75 0 0.25] CT
0.149 GC
2 setlinecap
10.0 ML
N
1738 873.039 M
1723.12 873.039 L
S
GR
GS
[0.75 0 0 0.75 0 0.25] CT
0.149 GC
2 setlinecap
10.0 ML
N
1738 793.235 M
1723.12 793.235 L
S
GR
GS
[0.75 0 0 0.75 0 0.25] CT
0.149 GC
2 setlinecap
10.0 ML
N
1738 713.431 M
1723.12 713.431 L
S
GR
GS
[0.75 0 0 0.75 0 0.25] CT
0.149 GC
2 setlinecap
10.0 ML
N
1738 633.627 M
1723.12 633.627 L
S
GR
GS
[0.75 0 0 0.75 0 0.25] CT
0.149 GC
2 setlinecap
10.0 ML
N
1738 553.824 M
1723.12 553.824 L
S
GR
GS
[0.75 0 0 0.75 0 0.25] CT
0.149 GC
2 setlinecap
10.0 ML
N
1738 474.02 M
1723.12 474.02 L
S
GR
GS
[0.75 0 0 0.75 0 0.25] CT
0.149 GC
2 setlinecap
10.0 ML
N
1738 394.216 M
1723.12 394.216 L
S
GR
GS
[0.75 0 0 0.75 0 0.25] CT
0.149 GC
2 setlinecap
10.0 ML
N
1738 314.412 M
1723.12 314.412 L
S
GR
GS
[0.75 0 0 0.75 0 0.25] CT
0.149 GC
2 setlinecap
10.0 ML
N
1738 234.608 M
1723.12 234.608 L
S
GR
GS
[0.75 0 0 0.75 0 0.25] CT
0.149 GC
2 setlinecap
10.0 ML
N
1738 154.804 M
1723.12 154.804 L
S
GR
GS
[0.75 0 0 0.75 0 0.25] CT
0.149 GC
2 setlinecap
10.0 ML
N
1738 75 M
1723.12 75 L
S
GR
GS
[0.75 0 0 0.75 180.7 655.02943] CT
0.149 GC
/Helvetica 32 F
GS
[1 0 0 1 0 0] CT
-21 11 moveto 
1 -1 scale
(0) t 
GR
GR
GS
[0.75 0 0 0.75 180.7 595.17647] CT
0.149 GC
/Helvetica 32 F
GS
[1 0 0 1 0 0] CT
-41 11 moveto 
1 -1 scale
(10) t 
GR
GR
GS
[0.75 0 0 0.75 180.7 535.32355] CT
0.149 GC
/Helvetica 32 F
GS
[1 0 0 1 0 0] CT
-41 11 moveto 
1 -1 scale
(20) t 
GR
GR
GS
[0.75 0 0 0.75 180.7 475.47058] CT
0.149 GC
/Helvetica 32 F
GS
[1 0 0 1 0 0] CT
-41 11 moveto 
1 -1 scale
(30) t 
GR
GR
GS
[0.75 0 0 0.75 180.7 415.61766] CT
0.149 GC
/Helvetica 32 F
GS
[1 0 0 1 0 0] CT
-41 11 moveto 
1 -1 scale
(40) t 
GR
GR
GS
[0.75 0 0 0.75 180.7 355.76472] CT
0.149 GC
/Helvetica 32 F
GS
[1 0 0 1 0 0] CT
-41 11 moveto 
1 -1 scale
(50) t 
GR
GR
GS
[0.75 0 0 0.75 180.7 295.91177] CT
0.149 GC
/Helvetica 32 F
GS
[1 0 0 1 0 0] CT
-41 11 moveto 
1 -1 scale
(60) t 
GR
GR
GS
[0.75 0 0 0.75 180.7 236.05883] CT
0.149 GC
/Helvetica 32 F
GS
[1 0 0 1 0 0] CT
-41 11 moveto 
1 -1 scale
(70) t 
GR
GR
GS
[0.75 0 0 0.75 180.7 176.20589] CT
0.149 GC
/Helvetica 32 F
GS
[1 0 0 1 0 0] CT
-41 11 moveto 
1 -1 scale
(80) t 
GR
GR
GS
[0.75 0 0 0.75 180.7 116.35294] CT
0.149 GC
/Helvetica 32 F
GS
[1 0 0 1 0 0] CT
-41 11 moveto 
1 -1 scale
(90) t 
GR
GR
GS
[0.75 0 0 0.75 180.7 56.5] CT
0.149 GC
/Helvetica 32 F
GS
[1 0 0 1 0 0] CT
-62 11 moveto 
1 -1 scale
(100) t 
GR
GR
GS
[0.75 0 0 0.75 0 0.25] CT
1 0 0 RC
[8 8] 0 setdash
2 LJ
2.667 LW
N
265.34 860.769 M
342.041 785.853 L
418.742 711.237 L
495.443 558.113 L
572.144 464.593 L
648.845 454.966 L
725.546 409.329 L
802.247 357.107 L
878.948 356.658 L
955.649 267.178 L
1032.35 283.139 L
1109.052 274.759 L
1185.753 257.751 L
1262.454 254.409 L
1339.155 258.449 L
1415.856 216.053 L
1492.557 228.074 L
1569.258 202.886 L
1645.959 191.165 L
1722.66 183.334 L
S
GR
GS
[0.75 0 0 0.75 0 0.25] CT
1 0 0 RC
2 setlinecap
10.0 ML
2.667 LW
N
273.5 860.5 M
272.708 857.029 L
270.488 854.245 L
267.28 852.701 L
263.72 852.701 L
260.512 854.245 L
258.292 857.029 L
257.5 860.5 L
258.292 863.971 L
260.512 866.755 L
263.72 868.299 L
267.28 868.299 L
270.488 866.755 L
272.708 863.971 L
273.5 860.5 L
S
GR
GS
[0.75 0 0 0.75 0 0.25] CT
1 0 0 RC
2 setlinecap
10.0 ML
2.667 LW
N
350.5 785.5 M
349.708 782.029 L
347.488 779.245 L
344.28 777.701 L
340.72 777.701 L
337.512 779.245 L
335.292 782.029 L
334.5 785.5 L
335.292 788.971 L
337.512 791.755 L
340.72 793.299 L
344.28 793.299 L
347.488 791.755 L
349.708 788.971 L
350.5 785.5 L
S
GR
GS
[0.75 0 0 0.75 0 0.25] CT
1 0 0 RC
2 setlinecap
10.0 ML
2.667 LW
N
426.5 711.5 M
425.708 708.029 L
423.488 705.245 L
420.28 703.701 L
416.72 703.701 L
413.512 705.245 L
411.292 708.029 L
410.5 711.5 L
411.292 714.971 L
413.512 717.755 L
416.72 719.299 L
420.28 719.299 L
423.488 717.755 L
425.708 714.971 L
426.5 711.5 L
S
GR
GS
[0.75 0 0 0.75 0 0.25] CT
1 0 0 RC
2 setlinecap
10.0 ML
2.667 LW
N
503.5 558.5 M
502.708 555.029 L
500.488 552.245 L
497.28 550.701 L
493.72 550.701 L
490.512 552.245 L
488.292 555.029 L
487.5 558.5 L
488.292 561.971 L
490.512 564.755 L
493.72 566.299 L
497.28 566.299 L
500.488 564.755 L
502.708 561.971 L
503.5 558.5 L
S
GR
GS
[0.75 0 0 0.75 0 0.25] CT
1 0 0 RC
2 setlinecap
10.0 ML
2.667 LW
N
580.5 464.5 M
579.708 461.029 L
577.488 458.245 L
574.28 456.701 L
570.72 456.701 L
567.512 458.245 L
565.292 461.029 L
564.5 464.5 L
565.292 467.971 L
567.512 470.755 L
570.72 472.299 L
574.28 472.299 L
577.488 470.755 L
579.708 467.971 L
580.5 464.5 L
S
GR
GS
[0.75 0 0 0.75 0 0.25] CT
1 0 0 RC
2 setlinecap
10.0 ML
2.667 LW
N
656.5 454.5 M
655.708 451.029 L
653.488 448.245 L
650.28 446.701 L
646.72 446.701 L
643.512 448.245 L
641.292 451.029 L
640.5 454.5 L
641.292 457.971 L
643.512 460.755 L
646.72 462.299 L
650.28 462.299 L
653.488 460.755 L
655.708 457.971 L
656.5 454.5 L
S
GR
GS
[0.75 0 0 0.75 0 0.25] CT
1 0 0 RC
2 setlinecap
10.0 ML
2.667 LW
N
733.5 409.5 M
732.708 406.029 L
730.488 403.245 L
727.28 401.701 L
723.72 401.701 L
720.512 403.245 L
718.292 406.029 L
717.5 409.5 L
718.292 412.971 L
720.512 415.755 L
723.72 417.299 L
727.28 417.299 L
730.488 415.755 L
732.708 412.971 L
733.5 409.5 L
S
GR
GS
[0.75 0 0 0.75 0 0.25] CT
1 0 0 RC
2 setlinecap
10.0 ML
2.667 LW
N
810.5 357.5 M
809.708 354.029 L
807.488 351.245 L
804.28 349.701 L
800.72 349.701 L
797.512 351.245 L
795.292 354.029 L
794.5 357.5 L
795.292 360.971 L
797.512 363.755 L
800.72 365.299 L
804.28 365.299 L
807.488 363.755 L
809.708 360.971 L
810.5 357.5 L
S
GR
GS
[0.75 0 0 0.75 0 0.25] CT
1 0 0 RC
2 setlinecap
10.0 ML
2.667 LW
N
886.5 356.5 M
885.708 353.029 L
883.488 350.245 L
880.28 348.701 L
876.72 348.701 L
873.512 350.245 L
871.292 353.029 L
870.5 356.5 L
871.292 359.971 L
873.512 362.755 L
876.72 364.299 L
880.28 364.299 L
883.488 362.755 L
885.708 359.971 L
886.5 356.5 L
S
GR
GS
[0.75 0 0 0.75 0 0.25] CT
1 0 0 RC
2 setlinecap
10.0 ML
2.667 LW
N
963.5 267.5 M
962.708 264.029 L
960.488 261.245 L
957.28 259.701 L
953.72 259.701 L
950.512 261.245 L
948.292 264.029 L
947.5 267.5 L
948.292 270.971 L
950.512 273.755 L
953.72 275.299 L
957.28 275.299 L
960.488 273.755 L
962.708 270.971 L
963.5 267.5 L
S
GR
GS
[0.75 0 0 0.75 0 0.25] CT
1 0 0 RC
2 setlinecap
10.0 ML
2.667 LW
N
1040.5 283.5 M
1039.708 280.029 L
1037.488 277.245 L
1034.28 275.701 L
1030.72 275.701 L
1027.512 277.245 L
1025.292 280.029 L
1024.5 283.5 L
1025.292 286.971 L
1027.512 289.755 L
1030.72 291.299 L
1034.28 291.299 L
1037.488 289.755 L
1039.708 286.971 L
1040.5 283.5 L
S
GR
GS
[0.75 0 0 0.75 0 0.25] CT
1 0 0 RC
2 setlinecap
10.0 ML
2.667 LW
N
1117.5 274.5 M
1116.708 271.029 L
1114.488 268.245 L
1111.28 266.701 L
1107.72 266.701 L
1104.512 268.245 L
1102.292 271.029 L
1101.5 274.5 L
1102.292 277.971 L
1104.512 280.755 L
1107.72 282.299 L
1111.28 282.299 L
1114.488 280.755 L
1116.708 277.971 L
1117.5 274.5 L
S
GR
GS
[0.75 0 0 0.75 0 0.25] CT
1 0 0 RC
2 setlinecap
10.0 ML
2.667 LW
N
1193.5 257.5 M
1192.708 254.029 L
1190.488 251.245 L
1187.28 249.701 L
1183.72 249.701 L
1180.512 251.245 L
1178.292 254.029 L
1177.5 257.5 L
1178.292 260.971 L
1180.512 263.755 L
1183.72 265.299 L
1187.28 265.299 L
1190.488 263.755 L
1192.708 260.971 L
1193.5 257.5 L
S
GR
GS
[0.75 0 0 0.75 0 0.25] CT
1 0 0 RC
2 setlinecap
10.0 ML
2.667 LW
N
1270.5 254.5 M
1269.708 251.029 L
1267.488 248.245 L
1264.28 246.701 L
1260.72 246.701 L
1257.512 248.245 L
1255.292 251.029 L
1254.5 254.5 L
1255.292 257.971 L
1257.512 260.755 L
1260.72 262.299 L
1264.28 262.299 L
1267.488 260.755 L
1269.708 257.971 L
1270.5 254.5 L
S
GR
GS
[0.75 0 0 0.75 0 0.25] CT
1 0 0 RC
2 setlinecap
10.0 ML
2.667 LW
N
1347.5 258.5 M
1346.708 255.029 L
1344.488 252.245 L
1341.28 250.701 L
1337.72 250.701 L
1334.512 252.245 L
1332.292 255.029 L
1331.5 258.5 L
1332.292 261.971 L
1334.512 264.755 L
1337.72 266.299 L
1341.28 266.299 L
1344.488 264.755 L
1346.708 261.971 L
1347.5 258.5 L
S
GR
GS
[0.75 0 0 0.75 0 0.25] CT
1 0 0 RC
2 setlinecap
10.0 ML
2.667 LW
N
1423.5 216.5 M
1422.708 213.029 L
1420.488 210.245 L
1417.28 208.701 L
1413.72 208.701 L
1410.512 210.245 L
1408.292 213.029 L
1407.5 216.5 L
1408.292 219.971 L
1410.512 222.755 L
1413.72 224.299 L
1417.28 224.299 L
1420.488 222.755 L
1422.708 219.971 L
1423.5 216.5 L
S
GR
GS
[0.75 0 0 0.75 0 0.25] CT
1 0 0 RC
2 setlinecap
10.0 ML
2.667 LW
N
1500.5 228.5 M
1499.708 225.029 L
1497.488 222.245 L
1494.28 220.701 L
1490.72 220.701 L
1487.512 222.245 L
1485.292 225.029 L
1484.5 228.5 L
1485.292 231.971 L
1487.512 234.755 L
1490.72 236.299 L
1494.28 236.299 L
1497.488 234.755 L
1499.708 231.971 L
1500.5 228.5 L
S
GR
GS
[0.75 0 0 0.75 0 0.25] CT
1 0 0 RC
2 setlinecap
10.0 ML
2.667 LW
N
1577.5 202.5 M
1576.708 199.029 L
1574.488 196.245 L
1571.28 194.701 L
1567.72 194.701 L
1564.512 196.245 L
1562.292 199.029 L
1561.5 202.5 L
1562.292 205.971 L
1564.512 208.755 L
1567.72 210.299 L
1571.28 210.299 L
1574.488 208.755 L
1576.708 205.971 L
1577.5 202.5 L
S
GR
GS
[0.75 0 0 0.75 0 0.25] CT
1 0 0 RC
2 setlinecap
10.0 ML
2.667 LW
N
1653.5 191.5 M
1652.708 188.029 L
1650.488 185.245 L
1647.28 183.701 L
1643.72 183.701 L
1640.512 185.245 L
1638.292 188.029 L
1637.5 191.5 L
1638.292 194.971 L
1640.512 197.755 L
1643.72 199.299 L
1647.28 199.299 L
1650.488 197.755 L
1652.708 194.971 L
1653.5 191.5 L
S
GR
GS
[0.75 0 0 0.75 0 0.25] CT
1 0 0 RC
2 setlinecap
10.0 ML
2.667 LW
N
1730.5 183.5 M
1729.708 180.029 L
1727.488 177.245 L
1724.28 175.701 L
1720.72 175.701 L
1717.512 177.245 L
1715.292 180.029 L
1714.5 183.5 L
1715.292 186.971 L
1717.512 189.755 L
1720.72 191.299 L
1724.28 191.299 L
1727.488 189.755 L
1729.708 186.971 L
1730.5 183.5 L
S
GR
GS
[0.75 0 0 0.75 0 0.25] CT
1 0 1 RC
[2 2] 0 setdash
2 LJ
2.667 LW
N
265.34 872.989 M
342.041 871.493 L
418.742 866.056 L
495.443 841.367 L
572.144 794.532 L
648.845 721.811 L
725.546 669.789 L
802.247 628.191 L
878.948 579.361 L
955.649 556.916 L
1032.35 515.917 L
1109.052 458.308 L
1185.753 469.281 L
1262.454 442.497 L
1339.155 412.82 L
1415.856 408.63 L
1492.557 359.252 L
1569.258 351.171 L
1645.959 333.465 L
1722.66 294.91 L
S
GR
GS
[0.75 0 0 0.75 0 0.25] CT
1 0 1 RC
N
256.265 877.832 M
274.735 877.832 L
265.5 861.836 L
cp
f
GR
GS
[0.75 0 0 0.75 0 0.25] CT
1 0 1 RC
2 setlinecap
10.0 ML
2.667 LW
N
256.265 877.832 M
274.735 877.832 L
265.5 861.836 L
256.265 877.832 L
S
GR
GS
[0.75 0 0 0.75 0 0.25] CT
1 0 1 RC
N
333.265 876.832 M
351.735 876.832 L
342.5 860.836 L
cp
f
GR
GS
[0.75 0 0 0.75 0 0.25] CT
1 0 1 RC
2 setlinecap
10.0 ML
2.667 LW
N
333.265 876.832 M
351.735 876.832 L
342.5 860.836 L
333.265 876.832 L
S
GR
GS
[0.75 0 0 0.75 0 0.25] CT
1 0 1 RC
N
409.265 871.832 M
427.735 871.832 L
418.5 855.836 L
cp
f
GR
GS
[0.75 0 0 0.75 0 0.25] CT
1 0 1 RC
2 setlinecap
10.0 ML
2.667 LW
N
409.265 871.832 M
427.735 871.832 L
418.5 855.836 L
409.265 871.832 L
S
GR
GS
[0.75 0 0 0.75 0 0.25] CT
1 0 1 RC
N
486.265 846.832 M
504.735 846.832 L
495.5 830.836 L
cp
f
GR
GS
[0.75 0 0 0.75 0 0.25] CT
1 0 1 RC
2 setlinecap
10.0 ML
2.667 LW
N
486.265 846.832 M
504.735 846.832 L
495.5 830.836 L
486.265 846.832 L
S
GR
GS
[0.75 0 0 0.75 0 0.25] CT
1 0 1 RC
N
563.265 799.832 M
581.735 799.832 L
572.5 783.836 L
cp
f
GR
GS
[0.75 0 0 0.75 0 0.25] CT
1 0 1 RC
2 setlinecap
10.0 ML
2.667 LW
N
563.265 799.832 M
581.735 799.832 L
572.5 783.836 L
563.265 799.832 L
S
GR
GS
[0.75 0 0 0.75 0 0.25] CT
1 0 1 RC
N
639.265 726.832 M
657.735 726.832 L
648.5 710.836 L
cp
f
GR
GS
[0.75 0 0 0.75 0 0.25] CT
1 0 1 RC
2 setlinecap
10.0 ML
2.667 LW
N
639.265 726.832 M
657.735 726.832 L
648.5 710.836 L
639.265 726.832 L
S
GR
GS
[0.75 0 0 0.75 0 0.25] CT
1 0 1 RC
N
716.265 674.832 M
734.735 674.832 L
725.5 658.836 L
cp
f
GR
GS
[0.75 0 0 0.75 0 0.25] CT
1 0 1 RC
2 setlinecap
10.0 ML
2.667 LW
N
716.265 674.832 M
734.735 674.832 L
725.5 658.836 L
716.265 674.832 L
S
GR
GS
[0.75 0 0 0.75 0 0.25] CT
1 0 1 RC
N
793.265 633.832 M
811.735 633.832 L
802.5 617.836 L
cp
f
GR
GS
[0.75 0 0 0.75 0 0.25] CT
1 0 1 RC
2 setlinecap
10.0 ML
2.667 LW
N
793.265 633.832 M
811.735 633.832 L
802.5 617.836 L
793.265 633.832 L
S
GR
GS
[0.75 0 0 0.75 0 0.25] CT
1 0 1 RC
N
869.265 584.832 M
887.735 584.832 L
878.5 568.836 L
cp
f
GR
GS
[0.75 0 0 0.75 0 0.25] CT
1 0 1 RC
2 setlinecap
10.0 ML
2.667 LW
N
869.265 584.832 M
887.735 584.832 L
878.5 568.836 L
869.265 584.832 L
S
GR
GS
[0.75 0 0 0.75 0 0.25] CT
1 0 1 RC
N
946.265 561.832 M
964.735 561.832 L
955.5 545.836 L
cp
f
GR
GS
[0.75 0 0 0.75 0 0.25] CT
1 0 1 RC
2 setlinecap
10.0 ML
2.667 LW
N
946.265 561.832 M
964.735 561.832 L
955.5 545.836 L
946.265 561.832 L
S
GR
GS
[0.75 0 0 0.75 0 0.25] CT
1 0 1 RC
N
1023.265 520.832 M
1041.735 520.832 L
1032.5 504.836 L
cp
f
GR
GS
[0.75 0 0 0.75 0 0.25] CT
1 0 1 RC
2 setlinecap
10.0 ML
2.667 LW
N
1023.265 520.832 M
1041.735 520.832 L
1032.5 504.836 L
1023.265 520.832 L
S
GR
GS
[0.75 0 0 0.75 0 0.25] CT
1 0 1 RC
N
1100.265 463.832 M
1118.735 463.832 L
1109.5 447.836 L
cp
f
GR
GS
[0.75 0 0 0.75 0 0.25] CT
1 0 1 RC
2 setlinecap
10.0 ML
2.667 LW
N
1100.265 463.832 M
1118.735 463.832 L
1109.5 447.836 L
1100.265 463.832 L
S
GR
GS
[0.75 0 0 0.75 0 0.25] CT
1 0 1 RC
N
1176.265 474.832 M
1194.735 474.832 L
1185.5 458.836 L
cp
f
GR
GS
[0.75 0 0 0.75 0 0.25] CT
1 0 1 RC
2 setlinecap
10.0 ML
2.667 LW
N
1176.265 474.832 M
1194.735 474.832 L
1185.5 458.836 L
1176.265 474.832 L
S
GR
GS
[0.75 0 0 0.75 0 0.25] CT
1 0 1 RC
N
1253.265 447.832 M
1271.735 447.832 L
1262.5 431.836 L
cp
f
GR
GS
[0.75 0 0 0.75 0 0.25] CT
1 0 1 RC
2 setlinecap
10.0 ML
2.667 LW
N
1253.265 447.832 M
1271.735 447.832 L
1262.5 431.836 L
1253.265 447.832 L
S
GR
GS
[0.75 0 0 0.75 0 0.25] CT
1 0 1 RC
N
1330.265 417.832 M
1348.735 417.832 L
1339.5 401.836 L
cp
f
GR
GS
[0.75 0 0 0.75 0 0.25] CT
1 0 1 RC
2 setlinecap
10.0 ML
2.667 LW
N
1330.265 417.832 M
1348.735 417.832 L
1339.5 401.836 L
1330.265 417.832 L
S
GR
GS
[0.75 0 0 0.75 0 0.25] CT
1 0 1 RC
N
1406.265 413.832 M
1424.735 413.832 L
1415.5 397.836 L
cp
f
GR
GS
[0.75 0 0 0.75 0 0.25] CT
1 0 1 RC
2 setlinecap
10.0 ML
2.667 LW
N
1406.265 413.832 M
1424.735 413.832 L
1415.5 397.836 L
1406.265 413.832 L
S
GR
GS
[0.75 0 0 0.75 0 0.25] CT
1 0 1 RC
N
1483.265 364.832 M
1501.735 364.832 L
1492.5 348.836 L
cp
f
GR
GS
[0.75 0 0 0.75 0 0.25] CT
1 0 1 RC
2 setlinecap
10.0 ML
2.667 LW
N
1483.265 364.832 M
1501.735 364.832 L
1492.5 348.836 L
1483.265 364.832 L
S
GR
GS
[0.75 0 0 0.75 0 0.25] CT
1 0 1 RC
N
1560.265 356.832 M
1578.735 356.832 L
1569.5 340.836 L
cp
f
GR
GS
[0.75 0 0 0.75 0 0.25] CT
1 0 1 RC
2 setlinecap
10.0 ML
2.667 LW
N
1560.265 356.832 M
1578.735 356.832 L
1569.5 340.836 L
1560.265 356.832 L
S
GR
GS
[0.75 0 0 0.75 0 0.25] CT
1 0 1 RC
N
1636.265 338.832 M
1654.735 338.832 L
1645.5 322.836 L
cp
f
GR
GS
[0.75 0 0 0.75 0 0.25] CT
1 0 1 RC
2 setlinecap
10.0 ML
2.667 LW
N
1636.265 338.832 M
1654.735 338.832 L
1645.5 322.836 L
1636.265 338.832 L
S
GR
GS
[0.75 0 0 0.75 0 0.25] CT
1 0 1 RC
N
1713.265 299.832 M
1731.735 299.832 L
1722.5 283.836 L
cp
f
GR
GS
[0.75 0 0 0.75 0 0.25] CT
1 0 1 RC
2 setlinecap
10.0 ML
2.667 LW
N
1713.265 299.832 M
1731.735 299.832 L
1722.5 283.836 L
1713.265 299.832 L
S
GR
GS
[0.75 0 0 0.75 0 0.25] CT
0 0 1 RC
[8 8] 0 setdash
2 LJ
2.667 LW
N
265.34 872.989 M
342.041 872.64 L
418.742 866.605 L
495.443 850.145 L
572.144 814.882 L
648.845 777.324 L
725.546 730.14 L
802.247 685.101 L
878.948 642.955 L
955.649 601.556 L
1032.35 556.866 L
1109.052 539.758 L
1185.753 505.143 L
1262.454 473.271 L
1339.155 460.852 L
1415.856 447.884 L
1492.557 423.344 L
1569.258 401.199 L
1645.959 382.494 L
1722.66 372.27 L
S
GR
GS
[0.75 0 0 0.75 0 0.25] CT
0 0 1 RC
2 setlinecap
10.0 ML
2.667 LW
N
258.572 868.5 M
263.191 868.5 L
265.5 864.5 L
267.809 868.5 L
272.428 868.5 L
269.5 872.5 L
272.428 876.5 L
267.809 876.5 L
265.5 880.5 L
263.191 876.5 L
258.572 876.5 L
261.5 872.5 L
258.572 868.5 L
S
GR
GS
[0.75 0 0 0.75 0 0.25] CT
0 0 1 RC
2 setlinecap
10.0 ML
2.667 LW
N
335.572 868.5 M
340.191 868.5 L
342.5 864.5 L
344.809 868.5 L
349.428 868.5 L
346.5 872.5 L
349.428 876.5 L
344.809 876.5 L
342.5 880.5 L
340.191 876.5 L
335.572 876.5 L
338.5 872.5 L
335.572 868.5 L
S
GR
GS
[0.75 0 0 0.75 0 0.25] CT
0 0 1 RC
2 setlinecap
10.0 ML
2.667 LW
N
411.572 862.5 M
416.191 862.5 L
418.5 858.5 L
420.809 862.5 L
425.428 862.5 L
422.5 866.5 L
425.428 870.5 L
420.809 870.5 L
418.5 874.5 L
416.191 870.5 L
411.572 870.5 L
414.5 866.5 L
411.572 862.5 L
S
GR
GS
[0.75 0 0 0.75 0 0.25] CT
0 0 1 RC
2 setlinecap
10.0 ML
2.667 LW
N
488.572 846.5 M
493.191 846.5 L
495.5 842.5 L
497.809 846.5 L
502.428 846.5 L
499.5 850.5 L
502.428 854.5 L
497.809 854.5 L
495.5 858.5 L
493.191 854.5 L
488.572 854.5 L
491.5 850.5 L
488.572 846.5 L
S
GR
GS
[0.75 0 0 0.75 0 0.25] CT
0 0 1 RC
2 setlinecap
10.0 ML
2.667 LW
N
565.572 810.5 M
570.191 810.5 L
572.5 806.5 L
574.809 810.5 L
579.428 810.5 L
576.5 814.5 L
579.428 818.5 L
574.809 818.5 L
572.5 822.5 L
570.191 818.5 L
565.572 818.5 L
568.5 814.5 L
565.572 810.5 L
S
GR
GS
[0.75 0 0 0.75 0 0.25] CT
0 0 1 RC
2 setlinecap
10.0 ML
2.667 LW
N
641.572 773.5 M
646.191 773.5 L
648.5 769.5 L
650.809 773.5 L
655.428 773.5 L
652.5 777.5 L
655.428 781.5 L
650.809 781.5 L
648.5 785.5 L
646.191 781.5 L
641.572 781.5 L
644.5 777.5 L
641.572 773.5 L
S
GR
GS
[0.75 0 0 0.75 0 0.25] CT
0 0 1 RC
2 setlinecap
10.0 ML
2.667 LW
N
718.572 726.5 M
723.191 726.5 L
725.5 722.5 L
727.809 726.5 L
732.428 726.5 L
729.5 730.5 L
732.428 734.5 L
727.809 734.5 L
725.5 738.5 L
723.191 734.5 L
718.572 734.5 L
721.5 730.5 L
718.572 726.5 L
S
GR
GS
[0.75 0 0 0.75 0 0.25] CT
0 0 1 RC
2 setlinecap
10.0 ML
2.667 LW
N
795.572 681.5 M
800.191 681.5 L
802.5 677.5 L
804.809 681.5 L
809.428 681.5 L
806.5 685.5 L
809.428 689.5 L
804.809 689.5 L
802.5 693.5 L
800.191 689.5 L
795.572 689.5 L
798.5 685.5 L
795.572 681.5 L
S
GR
GS
[0.75 0 0 0.75 0 0.25] CT
0 0 1 RC
2 setlinecap
10.0 ML
2.667 LW
N
871.572 638.5 M
876.191 638.5 L
878.5 634.5 L
880.809 638.5 L
885.428 638.5 L
882.5 642.5 L
885.428 646.5 L
880.809 646.5 L
878.5 650.5 L
876.191 646.5 L
871.572 646.5 L
874.5 642.5 L
871.572 638.5 L
S
GR
GS
[0.75 0 0 0.75 0 0.25] CT
0 0 1 RC
2 setlinecap
10.0 ML
2.667 LW
N
948.572 597.5 M
953.191 597.5 L
955.5 593.5 L
957.809 597.5 L
962.428 597.5 L
959.5 601.5 L
962.428 605.5 L
957.809 605.5 L
955.5 609.5 L
953.191 605.5 L
948.572 605.5 L
951.5 601.5 L
948.572 597.5 L
S
GR
GS
[0.75 0 0 0.75 0 0.25] CT
0 0 1 RC
2 setlinecap
10.0 ML
2.667 LW
N
1025.572 552.5 M
1030.191 552.5 L
1032.5 548.5 L
1034.809 552.5 L
1039.428 552.5 L
1036.5 556.5 L
1039.428 560.5 L
1034.809 560.5 L
1032.5 564.5 L
1030.191 560.5 L
1025.572 560.5 L
1028.5 556.5 L
1025.572 552.5 L
S
GR
GS
[0.75 0 0 0.75 0 0.25] CT
0 0 1 RC
2 setlinecap
10.0 ML
2.667 LW
N
1102.572 535.5 M
1107.191 535.5 L
1109.5 531.5 L
1111.809 535.5 L
1116.428 535.5 L
1113.5 539.5 L
1116.428 543.5 L
1111.809 543.5 L
1109.5 547.5 L
1107.191 543.5 L
1102.572 543.5 L
1105.5 539.5 L
1102.572 535.5 L
S
GR
GS
[0.75 0 0 0.75 0 0.25] CT
0 0 1 RC
2 setlinecap
10.0 ML
2.667 LW
N
1178.572 501.5 M
1183.191 501.5 L
1185.5 497.5 L
1187.809 501.5 L
1192.428 501.5 L
1189.5 505.5 L
1192.428 509.5 L
1187.809 509.5 L
1185.5 513.5 L
1183.191 509.5 L
1178.572 509.5 L
1181.5 505.5 L
1178.572 501.5 L
S
GR
GS
[0.75 0 0 0.75 0 0.25] CT
0 0 1 RC
2 setlinecap
10.0 ML
2.667 LW
N
1255.572 469.5 M
1260.191 469.5 L
1262.5 465.5 L
1264.809 469.5 L
1269.428 469.5 L
1266.5 473.5 L
1269.428 477.5 L
1264.809 477.5 L
1262.5 481.5 L
1260.191 477.5 L
1255.572 477.5 L
1258.5 473.5 L
1255.572 469.5 L
S
GR
GS
[0.75 0 0 0.75 0 0.25] CT
0 0 1 RC
2 setlinecap
10.0 ML
2.667 LW
N
1332.572 456.5 M
1337.191 456.5 L
1339.5 452.5 L
1341.809 456.5 L
1346.428 456.5 L
1343.5 460.5 L
1346.428 464.5 L
1341.809 464.5 L
1339.5 468.5 L
1337.191 464.5 L
1332.572 464.5 L
1335.5 460.5 L
1332.572 456.5 L
S
GR
GS
[0.75 0 0 0.75 0 0.25] CT
0 0 1 RC
2 setlinecap
10.0 ML
2.667 LW
N
1408.572 443.5 M
1413.191 443.5 L
1415.5 439.5 L
1417.809 443.5 L
1422.428 443.5 L
1419.5 447.5 L
1422.428 451.5 L
1417.809 451.5 L
1415.5 455.5 L
1413.191 451.5 L
1408.572 451.5 L
1411.5 447.5 L
1408.572 443.5 L
S
GR
GS
[0.75 0 0 0.75 0 0.25] CT
0 0 1 RC
2 setlinecap
10.0 ML
2.667 LW
N
1485.572 419.5 M
1490.191 419.5 L
1492.5 415.5 L
1494.809 419.5 L
1499.428 419.5 L
1496.5 423.5 L
1499.428 427.5 L
1494.809 427.5 L
1492.5 431.5 L
1490.191 427.5 L
1485.572 427.5 L
1488.5 423.5 L
1485.572 419.5 L
S
GR
GS
[0.75 0 0 0.75 0 0.25] CT
0 0 1 RC
2 setlinecap
10.0 ML
2.667 LW
N
1562.572 397.5 M
1567.191 397.5 L
1569.5 393.5 L
1571.809 397.5 L
1576.428 397.5 L
1573.5 401.5 L
1576.428 405.5 L
1571.809 405.5 L
1569.5 409.5 L
1567.191 405.5 L
1562.572 405.5 L
1565.5 401.5 L
1562.572 397.5 L
S
GR
GS
[0.75 0 0 0.75 0 0.25] CT
0 0 1 RC
2 setlinecap
10.0 ML
2.667 LW
N
1638.572 378.5 M
1643.191 378.5 L
1645.5 374.5 L
1647.809 378.5 L
1652.428 378.5 L
1649.5 382.5 L
1652.428 386.5 L
1647.809 386.5 L
1645.5 390.5 L
1643.191 386.5 L
1638.572 386.5 L
1641.5 382.5 L
1638.572 378.5 L
S
GR
GS
[0.75 0 0 0.75 0 0.25] CT
0 0 1 RC
2 setlinecap
10.0 ML
2.667 LW
N
1715.572 368.5 M
1720.191 368.5 L
1722.5 364.5 L
1724.809 368.5 L
1729.428 368.5 L
1726.5 372.5 L
1729.428 376.5 L
1724.809 376.5 L
1722.5 380.5 L
1720.191 376.5 L
1715.572 376.5 L
1718.5 372.5 L
1715.572 368.5 L
S
GR
GS
[0.75 0 0 0.75 0 0.25] CT
[2 2] 0 setdash
2 LJ
2.667 LW
N
265.34 873.039 M
342.041 873.039 L
418.742 873.039 L
495.443 873.039 L
572.144 872.939 L
648.845 872.64 L
725.546 871.992 L
802.247 869.199 L
878.948 864.311 L
955.649 856.58 L
1032.35 842.514 L
1109.052 817.974 L
1185.753 812.288 L
1262.454 790.143 L
1339.155 753.234 L
1415.856 727.746 L
1492.557 713.182 L
1569.258 679.265 L
1645.959 665.399 L
1722.66 632.081 L
S
GR
GS
[0.75 0 0 0.75 0 0.25] CT
N
265.5 884.164 M
273.5 873.5 L
265.5 862.836 L
257.5 873.5 L
cp
f
GR
GS
[0.75 0 0 0.75 0 0.25] CT
2 setlinecap
10.0 ML
2.667 LW
N
265.5 884.164 M
273.5 873.5 L
265.5 862.836 L
257.5 873.5 L
265.5 884.164 L
S
GR
GS
[0.75 0 0 0.75 0 0.25] CT
N
342.5 884.164 M
350.5 873.5 L
342.5 862.836 L
334.5 873.5 L
cp
f
GR
GS
[0.75 0 0 0.75 0 0.25] CT
2 setlinecap
10.0 ML
2.667 LW
N
342.5 884.164 M
350.5 873.5 L
342.5 862.836 L
334.5 873.5 L
342.5 884.164 L
S
GR
GS
[0.75 0 0 0.75 0 0.25] CT
N
418.5 884.164 M
426.5 873.5 L
418.5 862.836 L
410.5 873.5 L
cp
f
GR
GS
[0.75 0 0 0.75 0 0.25] CT
2 setlinecap
10.0 ML
2.667 LW
N
418.5 884.164 M
426.5 873.5 L
418.5 862.836 L
410.5 873.5 L
418.5 884.164 L
S
GR
GS
[0.75 0 0 0.75 0 0.25] CT
N
495.5 884.164 M
503.5 873.5 L
495.5 862.836 L
487.5 873.5 L
cp
f
GR
GS
[0.75 0 0 0.75 0 0.25] CT
2 setlinecap
10.0 ML
2.667 LW
N
495.5 884.164 M
503.5 873.5 L
495.5 862.836 L
487.5 873.5 L
495.5 884.164 L
S
GR
GS
[0.75 0 0 0.75 0 0.25] CT
N
572.5 883.164 M
580.5 872.5 L
572.5 861.836 L
564.5 872.5 L
cp
f
GR
GS
[0.75 0 0 0.75 0 0.25] CT
2 setlinecap
10.0 ML
2.667 LW
N
572.5 883.164 M
580.5 872.5 L
572.5 861.836 L
564.5 872.5 L
572.5 883.164 L
S
GR
GS
[0.75 0 0 0.75 0 0.25] CT
N
648.5 883.164 M
656.5 872.5 L
648.5 861.836 L
640.5 872.5 L
cp
f
GR
GS
[0.75 0 0 0.75 0 0.25] CT
2 setlinecap
10.0 ML
2.667 LW
N
648.5 883.164 M
656.5 872.5 L
648.5 861.836 L
640.5 872.5 L
648.5 883.164 L
S
GR
GS
[0.75 0 0 0.75 0 0.25] CT
N
725.5 882.164 M
733.5 871.5 L
725.5 860.836 L
717.5 871.5 L
cp
f
GR
GS
[0.75 0 0 0.75 0 0.25] CT
2 setlinecap
10.0 ML
2.667 LW
N
725.5 882.164 M
733.5 871.5 L
725.5 860.836 L
717.5 871.5 L
725.5 882.164 L
S
GR
GS
[0.75 0 0 0.75 0 0.25] CT
N
802.5 880.164 M
810.5 869.5 L
802.5 858.836 L
794.5 869.5 L
cp
f
GR
GS
[0.75 0 0 0.75 0 0.25] CT
2 setlinecap
10.0 ML
2.667 LW
N
802.5 880.164 M
810.5 869.5 L
802.5 858.836 L
794.5 869.5 L
802.5 880.164 L
S
GR
GS
[0.75 0 0 0.75 0 0.25] CT
N
878.5 875.164 M
886.5 864.5 L
878.5 853.836 L
870.5 864.5 L
cp
f
GR
GS
[0.75 0 0 0.75 0 0.25] CT
2 setlinecap
10.0 ML
2.667 LW
N
878.5 875.164 M
886.5 864.5 L
878.5 853.836 L
870.5 864.5 L
878.5 875.164 L
S
GR
GS
[0.75 0 0 0.75 0 0.25] CT
N
955.5 867.164 M
963.5 856.5 L
955.5 845.836 L
947.5 856.5 L
cp
f
GR
GS
[0.75 0 0 0.75 0 0.25] CT
2 setlinecap
10.0 ML
2.667 LW
N
955.5 867.164 M
963.5 856.5 L
955.5 845.836 L
947.5 856.5 L
955.5 867.164 L
S
GR
GS
[0.75 0 0 0.75 0 0.25] CT
N
1032.5 853.164 M
1040.5 842.5 L
1032.5 831.836 L
1024.5 842.5 L
cp
f
GR
GS
[0.75 0 0 0.75 0 0.25] CT
2 setlinecap
10.0 ML
2.667 LW
N
1032.5 853.164 M
1040.5 842.5 L
1032.5 831.836 L
1024.5 842.5 L
1032.5 853.164 L
S
GR
GS
[0.75 0 0 0.75 0 0.25] CT
N
1109.5 828.164 M
1117.5 817.5 L
1109.5 806.836 L
1101.5 817.5 L
cp
f
GR
GS
[0.75 0 0 0.75 0 0.25] CT
2 setlinecap
10.0 ML
2.667 LW
N
1109.5 828.164 M
1117.5 817.5 L
1109.5 806.836 L
1101.5 817.5 L
1109.5 828.164 L
S
GR
GS
[0.75 0 0 0.75 0 0.25] CT
N
1185.5 823.164 M
1193.5 812.5 L
1185.5 801.836 L
1177.5 812.5 L
cp
f
GR
GS
[0.75 0 0 0.75 0 0.25] CT
2 setlinecap
10.0 ML
2.667 LW
N
1185.5 823.164 M
1193.5 812.5 L
1185.5 801.836 L
1177.5 812.5 L
1185.5 823.164 L
S
GR
GS
[0.75 0 0 0.75 0 0.25] CT
N
1262.5 801.164 M
1270.5 790.5 L
1262.5 779.836 L
1254.5 790.5 L
cp
f
GR
GS
[0.75 0 0 0.75 0 0.25] CT
2 setlinecap
10.0 ML
2.667 LW
N
1262.5 801.164 M
1270.5 790.5 L
1262.5 779.836 L
1254.5 790.5 L
1262.5 801.164 L
S
GR
GS
[0.75 0 0 0.75 0 0.25] CT
N
1339.5 764.164 M
1347.5 753.5 L
1339.5 742.836 L
1331.5 753.5 L
cp
f
GR
GS
[0.75 0 0 0.75 0 0.25] CT
2 setlinecap
10.0 ML
2.667 LW
N
1339.5 764.164 M
1347.5 753.5 L
1339.5 742.836 L
1331.5 753.5 L
1339.5 764.164 L
S
GR
GS
[0.75 0 0 0.75 0 0.25] CT
N
1415.5 738.164 M
1423.5 727.5 L
1415.5 716.836 L
1407.5 727.5 L
cp
f
GR
GS
[0.75 0 0 0.75 0 0.25] CT
2 setlinecap
10.0 ML
2.667 LW
N
1415.5 738.164 M
1423.5 727.5 L
1415.5 716.836 L
1407.5 727.5 L
1415.5 738.164 L
S
GR
GS
[0.75 0 0 0.75 0 0.25] CT
N
1492.5 724.164 M
1500.5 713.5 L
1492.5 702.836 L
1484.5 713.5 L
cp
f
GR
GS
[0.75 0 0 0.75 0 0.25] CT
2 setlinecap
10.0 ML
2.667 LW
N
1492.5 724.164 M
1500.5 713.5 L
1492.5 702.836 L
1484.5 713.5 L
1492.5 724.164 L
S
GR
GS
[0.75 0 0 0.75 0 0.25] CT
N
1569.5 690.164 M
1577.5 679.5 L
1569.5 668.836 L
1561.5 679.5 L
cp
f
GR
GS
[0.75 0 0 0.75 0 0.25] CT
2 setlinecap
10.0 ML
2.667 LW
N
1569.5 690.164 M
1577.5 679.5 L
1569.5 668.836 L
1561.5 679.5 L
1569.5 690.164 L
S
GR
GS
[0.75 0 0 0.75 0 0.25] CT
N
1645.5 676.164 M
1653.5 665.5 L
1645.5 654.836 L
1637.5 665.5 L
cp
f
GR
GS
[0.75 0 0 0.75 0 0.25] CT
2 setlinecap
10.0 ML
2.667 LW
N
1645.5 676.164 M
1653.5 665.5 L
1645.5 654.836 L
1637.5 665.5 L
1645.5 676.164 L
S
GR
GS
[0.75 0 0 0.75 0 0.25] CT
N
1722.5 643.164 M
1730.5 632.5 L
1722.5 621.836 L
1714.5 632.5 L
cp
f
GR
GS
[0.75 0 0 0.75 0 0.25] CT
2 setlinecap
10.0 ML
2.667 LW
N
1722.5 643.164 M
1730.5 632.5 L
1722.5 621.836 L
1714.5 632.5 L
1722.5 643.164 L
S
GR
GS
[0.75 0 0 0.75 0 0.25] CT
1 GC
N
263 248 M
263 88 L
996 88 L
996 248 L
cp
f
GR
GS
[0.75 0 0 0.75 236.25 82.56799] CT
/Helvetica 32 F
GS
[1 0 0 1 0 0] CT
0 11 moveto 
1 -1 scale
( Dijkstra + Graph Coloring \(4 channel net\)) t 
GR
GR
GS
[0.75 0 0 0.75 0 0.25] CT
1 0 0 RC
[8 8] 0 setdash
2 LJ
2.667 LW
N
271 109.757 M
311 109.757 L
S
GR
GS
[0.75 0 0 0.75 0 0.25] CT
1 0 0 RC
2 setlinecap
10.0 ML
2.667 LW
N
299.5 109.5 M
298.708 106.029 L
296.488 103.245 L
293.28 101.701 L
289.72 101.701 L
286.512 103.245 L
284.292 106.029 L
283.5 109.5 L
284.292 112.971 L
286.512 115.755 L
289.72 117.299 L
293.28 117.299 L
296.488 115.755 L
298.708 112.971 L
299.5 109.5 L
S
GR
GS
[0.75 0 0 0.75 236.25 111.68933] CT
/Helvetica 32 F
GS
[1 0 0 1 0 0] CT
0 11 moveto 
1 -1 scale
( Dijkstra + Graph Coloring \(8 channel net\)) t 
GR
GR
GS
[0.75 0 0 0.75 0 0.25] CT
1 0 1 RC
[2 2] 0 setdash
2 LJ
2.667 LW
N
271 148.586 M
311 148.586 L
S
GR
GS
[0.75 0 0 0.75 0 0.25] CT
1 0 1 RC
N
282.265 153.832 M
300.735 153.832 L
291.5 137.836 L
cp
f
GR
GS
[0.75 0 0 0.75 0 0.25] CT
1 0 1 RC
2 setlinecap
10.0 ML
2.667 LW
N
282.265 153.832 M
300.735 153.832 L
291.5 137.836 L
282.265 153.832 L
S
GR
GS
[0.75 0 0 0.75 236.25 140.81067] CT
/Helvetica 32 F
GS
[1 0 0 1 0 0] CT
0 11 moveto 
1 -1 scale
( Genetic Algorithm + GOF \(4 channel net\)) t 
GR
GR
GS
[0.75 0 0 0.75 0 0.25] CT
0 0 1 RC
[8 8] 0 setdash
2 LJ
2.667 LW
N
271 187.414 M
311 187.414 L
S
GR
GS
[0.75 0 0 0.75 0 0.25] CT
0 0 1 RC
2 setlinecap
10.0 ML
2.667 LW
N
284.572 183.5 M
289.191 183.5 L
291.5 179.5 L
293.809 183.5 L
298.428 183.5 L
295.5 187.5 L
298.428 191.5 L
293.809 191.5 L
291.5 195.5 L
289.191 191.5 L
284.572 191.5 L
287.5 187.5 L
284.572 183.5 L
S
GR
GS
[0.75 0 0 0.75 236.25 169.93201] CT
/Helvetica 32 F
GS
[1 0 0 1 0 0] CT
0 11 moveto 
1 -1 scale
( Genetic Algorithm + GOF \(8 channel net\)) t 
GR
GR
GS
[0.75 0 0 0.75 0 0.25] CT
[2 2] 0 setdash
2 LJ
2.667 LW
N
271 226.243 M
311 226.243 L
S
GR
GS
[0.75 0 0 0.75 0 0.25] CT
N
291.5 237.164 M
299.5 226.5 L
291.5 215.836 L
283.5 226.5 L
cp
f
GR
GS
[0.75 0 0 0.75 0 0.25] CT
2 setlinecap
10.0 ML
2.667 LW
N
291.5 237.164 M
299.5 226.5 L
291.5 215.836 L
283.5 226.5 L
291.5 237.164 L
S
GR
GS
[0.75 0 0 0.75 0 0.25] CT
0.149 GC
2 setlinecap
10.0 ML
N
263 248 M
263 88 L
996 88 L
996 248 L
263 248 L
S
GR
%%Trailer
%%Pages: 1
%%EOF
